{
  "culture": "ar",
  "texts": {
    "Menu:Home": "الرئيسية",
    "Welcome": "مرحبا",
    "LongWelcomeMessage": "مرحبا بكم في التطبيق. هذا مشروع بدء تشغيل يعتمد على إطار عمل ABP. لمزيد من المعلومات ، يرجى زيارة abp.io.",
    "SomethingGoesWrong": "للأسف حصل خطأ ما .... الرجاء المحاولة لاحقا",
    "AdvancedSearch": "بحث متقدم",
    "Name": "الاسم",
    "Balance": "الرصيد",
    "Actions": "الإجرائيات",
    "Status": "الحالة",
    ////////////Cashboxes/////////////
    "Permission:Cashboxes": "أذونات صناديق النقد",
    "Permission:Cashboxes.Create": "إذن إضافة صندوق نقد",
    "Permission:Cashboxes.Edit": "إذن تعديل صندوق نقد",
    "Permission:Cashboxes.Delete": "إذن حذف صندوق نقد",
    "Permission:Cashboxes.Manage": "إذن إدارة صندوق النقد",
    "Cashboxes": "صناديق النقد",
    "AddNewCashbox": "صندوق نقد جديد",
    "Menu:Cashboxes": "صناديق النقد",
    "Menu:Cashbox": "صندوق النقد",
    "NewCashbox": "صندوق نقد جديد",
    "CashboxesDeleteConfirmationMessage": "هل انت متأكد أنك تريد حذف صندوق النقد ؟",
    "AddNewCashboxe": "إضافة صندوق نقد جديد",
    "OpenCashbox": "فتح صندوق النقد",
    "TotalCashbox": "الإجمالي في صندوق النقد",
    "CashboxBalance": "رصيد صندوق النقد",
    /////////////////////////////////////////
    ////////////Employees/////////////
    "Permission:Employees": "أذونات الموظفين",
    "Permission:Employees.Create": "إذن إضافة موظف",
    "Permission:Employees.Edit": "إذن تعديل موظف",
    "Permission:Employees.Delete": "إذن حذف موظف",
    "Permission:Employees.Manage": "إذن إدارة موظف",
    "Employees": "الموظفين",
    "AddNewEmploye": "إضافة موظف جديد",
    "Menu:Employees": "الموظفين",
    "Menu:Employe": "الموظف",
    "NewEmploye": "موظف جديد",
    "EmployeesDeleteConfirmationMessage": "هل انت متأكد انك تريد حذف هذا الموظف ؟",
    "AddNewEmployee": "إضافة موظف جديد",
    "NewEmployee": "موظف جديد",
    "UserName": "اسم المستخدم",
    "Email": "الإيميل",
    "PhoneNumber": "رقم الهاتف",
    "Cashbox": "صندوق النقد",
    "Surname": "اللقب",
    "Password": "كلمة السر",
    "EditEmployee": "تعديل الموظف",
    "ResetPassword": "إعادة تعيين كلمة السر",
    /////////////////////////////////////////
    ////////////Products/////////////
    "Permission:Products": "أذونات المنتجات",
    "Permission:Products.Create": "إذن إضافة منتج",
    "Permission:Products.Edit": "إذن تعديل منتج",
    "Permission:Products.Delete": "إذن حذف منتج",
    "Permission:Products.Manage": "إذن إدارة المنتج",
    "Products": "المنتجات",
    "AddNewProduct": "منتج جديد",
    "Menu:Products": "المنتجات",
    "Menu:Product": "المنتج",
    "NewProduct": "منتج جديد",
    "ProductsDeleteConfirmationMessage": "هل انت متأكد أنك تريد حذف المنتج ؟",
    /////////////////////////////////////////
    ////////////Currencys/////////////
    "Permission:Currencys": "أذونات العملات",
    "Permission:Currencys.Create": "إذن إضافة عملة",
    "Permission:Currencys.Edit": "إذن تعديل عملة",
    "Permission:Currencys.Delete": "إذن حذف عملة",
    "Permission:Currencys.Manage": "إذن إدارة العملة",
    "Currencys": "العملات",
    "AddNewCurrency": "عملة جديد",
    "Menu:Currencys": "العملات",
    "Menu:Currency": "العملة",
    "NewCurrency": "عملة جديد",
    "CurrencysDeleteConfirmationMessage": "هل انت متأكد أنك تريد حذف العملة ؟",
    "SameNameError": "هناك عملة تحمل نفس الاسم.",
    "SameCodeError": "هناك عملة تحمل نفس الكود.",
    "IsMain": "رئيسية",
    "ExchangeRateShouldBeBiggerThan0": "سعر الصرف يجب أن يكون اكبر من 0",
    "Code": "الرمز",
    "ExchangeRate": "سعر الصرف",
    "Date": "التاريخ",
    "AddExchangeRate": "إضافة سعر صرف",
    /////////////////////////////////////////
    ////////////Orders/////////////
    "Permission:Orders": "أذونات الطلبات",
    "Permission:Orders.Create": "إذن إضافة طلب",
    "Permission:Orders.Edit": "إذن تعديل طلب",
    "Permission:Orders.Delete": "إذن حذف طلب",
    "Permission:Orders.Manage": "إذن إدارة الطلب",
    "Orders": "الطلبات",
    "AddNewOrder": "طلب جديد",
    "Menu:Orders": "الطلبات",
    "Menu:Order": "الطلب",
    "NewOrder": "طلب جديد",
    "Menu:PreviousOrder": "الطلبات السابقة",
    "Menu:AddOrder": "طلب جديد",
    "OrdersDeleteConfirmationMessage": "هل انت متأكد أنك تريد حذف الطلب ؟",
    "PreviousOrders": "الطلبات السابقة",
    "EnterSkuCode": "ادخل رمز ال sku",
    "Add": "إضافة",
    "ClientName": "اسم الزبون",
    "ClientPhoneNumber": "رقم هاتف الزبون",
    "TotalIn": "الرصيد الكلي ",
    "Quantity": "الكمية",
    "UnitPrice": "سعر الوحدة",
    "TotalPrice": "السعر الكلي",
    "ClientPaid": "المبلغ المدفوع",
    "Change": "الفكة",
    "OrderShouldContain1Prod": "يجل ان يحتوي الطلب على منتج واحد على الأقل",
    "EnoughBalance": "الرجاء دفع قيمة الطلب ",
    "EnoughChange": "الرجاء دفع قيمة الفكة",
    "DoYouWantAReceipt": "هل تريد وصل ؟"
    /////////////////////////////////////////
  }
}