{
  "profiles": {
    "Volo.Abp.Account.Web.IdentityServer": {
      "commandName": "Project",
      "launchBrowser": true,
      "environmentVariables": {
        "ASPNETCORE_ENVIRONMENT": "Development"
      },
      "applicationUrl": "https://localhost:54278;http://localhost:54279"
    }
  }
}